…
    event_start = runoff_flag & !lag(runoff_flag, default = FALSE),
    event_id    = if_else(runoff_flag, cumsum(event_start), 0L),
    event_end   = runoff_flag & !lead(runoff_flag, default = FALSE)
  ) %>%
  group_by(site, event_id) %>%
  mutate(
    event_start_date = if_else(event_id > 0L, min(date), as.Date(NA)),
    event_end_date   = if_else(event_id > 0L, max(date), as.Date(NA)),
    day_in_event     = if_else(event_id > 0L, row_number(), NA_integer_)
  ) %>%
  ungroup()
```

    ## # A tibble: 139 × 9
    ##    site   event_id_lf event_start_date event_end_date duration_days peak_flow
    ##    <chr>        <int> <date>           <date>                 <int>     <dbl>
    ##  1 browns           7 2024-10-17       2024-10-18                 2    0.0279
    ##  2 browns           9 2024-10-28       2024-10-30                 3    0.0335
    ##  3 browns          10 2024-11-12       2024-11-15                 4    0.0396
    ##  4 browns          11 2024-11-21       2024-11-23                 3    0.0428
    ##  5 browns          13 2024-12-14       2024-12-14                 1    0.0359
    ##  6 browns          14 2024-12-17       2024-12-17                 1    0.0389
    ##  7 browns          15 2024-12-22       2024-12-22                 1    0.0410
    ##  8 browns          16 2024-12-29       2024-12-30                 2    0.0419
    ##  9 browns          20 2025-02-01       2025-02-03                 3    0.0509
    ## 10 browns          21 2025-02-05       2025-02-05                 1    0.0582
    ## # ℹ 129 more rows
    ## # ℹ 3 more variables: peak_flow_date <date>, total_ppt_mm <dbl>,
    ## #   peak_ppt_mm <dbl>
…
